ForceUpdate: Added Ports

======================================================================

Port added for Net 1 at (82.500mm, 200.000mm) on sheet 1
Port added for Net 1 at (242.500mm, 225.000mm) on sheet 1
Port added for Net 1 at (298.840mm, 275.000mm) on sheet 1
Port added for Net 1 at (337.500mm, 350.000mm) on sheet 1
Port added for Net 8 at (298.840mm, 240.000mm) on sheet 1
Port added for Net 8 at (337.500mm, 345.000mm) on sheet 1
Port added for Net 7 at (298.840mm, 245.000mm) on sheet 1
Port added for Net 7 at (337.500mm, 335.000mm) on sheet 1
Port added for Net 6 at (298.840mm, 250.000mm) on sheet 1
Port added for Net 6 at (337.500mm, 325.000mm) on sheet 1
Port added for Net 5 at (298.840mm, 255.000mm) on sheet 1
Port added for Net 5 at (337.500mm, 315.000mm) on sheet 1
Port added for Net 4 at (298.840mm, 260.000mm) on sheet 1
Port added for Net 4 at (337.500mm, 320.000mm) on sheet 1
Port added for Net 3 at (82.500mm, 190.000mm) on sheet 1
Port added for Net 3 at (298.840mm, 265.000mm) on sheet 1
Port added for Net 3 at (242.500mm, 235.000mm) on sheet 1
Port added for Net 3 at (337.500mm, 330.000mm) on sheet 1
Port added for Net 2 at (82.500mm, 195.000mm) on sheet 1
Port added for Net 2 at (242.500mm, 230.000mm) on sheet 1
Port added for Net 2 at (298.840mm, 270.000mm) on sheet 1
Port added for Net 2 at (337.500mm, 340.000mm) on sheet 1


































----------------------------------------------------------------------

22-Nov-19  20:30                                            Page    1

